<html>
<head>
<title>Dotcom Weavers</title>
</head>
<body>
<table width="100%" border="0" cellspacing="0" cellpadding="0" align="center">
  <tr bgcolor="#FFFFFF">
    <td style="border-left:1px solid #3ABAE6;border-right:1px solid #3ABAE6;font-family:Tahoma, Arial,Verdana;font-size:10pt;padding:10px;color:#000000;">
        #EMAIL_CONTENT#   
    </td>
  </tr>
  <tr bgcolor="#3ABAE6">
    <td align="center" style="font-family:Tahoma, Arial,Verdana;font-size:10pt;color:#FFFFFF;padding:5px;">
      Copyright &copy; 2013 <br/>Dotcomweavers. All Rights Reserved.
    </td>
  </tr>
</table>
</body>
</html>